1405519384<!@!>145<!@!>2014-07-16 19:33:04<!@!>Harjeet<!@!>152<!@!>kokomko,ok,
1405519653<!@!>145<!@!>2014-07-16 19:37:33<!@!>Harjeet<!@!>152<!@!>what??
1405579105<!@!>145<!@!>2014-07-17 12:08:25<!@!>Harjeet<!@!>152<!@!>Are you available ?
1406780915<!@!>145<!@!>2014-07-31 09:58:35<!@!>Harjeet<!@!>152<!@!>I am fine
1407141264<!@!>145<!@!>2014-08-04 14:04:24<!@!>Harjeet<!@!>152<!@!>Hello Ji
