1405579343<!@!>145<!@!>2014-07-17 12:12:23<!@!>Jeevan kumar<!@!>20<!@!>ghjhj
1405579372<!@!>145<!@!>2014-07-17 12:12:52<!@!>Jeevan kumar<!@!>20<!@!>kl;kl;kl;kl;kl;kl;
1405579374<!@!>145<!@!>2014-07-17 12:12:54<!@!>Jeevan kumar<!@!>20<!@!>kl;kl;kl;
1406540530<!@!>145<!@!>2014-07-28 15:12:10<!@!>Jeevan kumar<!@!>20<!@!>hi
