1405607742<!@!>146<!@!>2014-07-17 20:05:42<!@!><!@!>185<!@!>Hi I am good
1405744483<!@!>146<!@!>2014-07-19 10:04:43<!@!>deepak<!@!>185<!@!>hiii
1405745106<!@!>146<!@!>2014-07-19 10:15:06<!@!>deepak<!@!>185<!@!>good morning
1405745623<!@!>146<!@!>2014-07-19 10:23:43<!@!>deepak<!@!>185<!@!>hiiiiiiiii
1405745885<!@!>185<!@!>2014-07-19 10:28:05<!@!>Rachita<!@!>146<!@!>hello
1405745893<!@!>185<!@!>2014-07-19 10:28:13<!@!>Rachita<!@!>146<!@!>gud morning
1405745987<!@!>185<!@!>2014-07-19 10:29:47<!@!>Rachita<!@!>146<!@!>heelo
1405745998<!@!>185<!@!>2014-07-19 10:29:58<!@!>Rachita<!@!>146<!@!>good afternoon
1405746066<!@!>146<!@!>2014-07-19 10:31:06<!@!>deepak<!@!>185<!@!>hiiiiii
1405746251<!@!>185<!@!>2014-07-19 10:34:11<!@!>Rachita<!@!>146<!@!>hello
1405746257<!@!>185<!@!>2014-07-19 10:34:17<!@!>Rachita<!@!>146<!@!>gud afternoon
1405765829<!@!>185<!@!>2014-07-19 16:00:29<!@!>Rachita<!@!>146<!@!>Good noon
