1405519263<!@!>146<!@!>2014-07-16 19:31:03<!@!>Harjeet<!@!>152<!@!>789456123
1405570048<!@!>152<!@!>2014-07-17 09:37:28<!@!>Rachita<!@!>146<!@!>sdgvghb
1405575516<!@!>146<!@!>2014-07-17 11:08:36<!@!>Harjeet<!@!>152<!@!>hello
1405575519<!@!>146<!@!>2014-07-17 11:08:39<!@!>Harjeet<!@!>152<!@!>hii
1405575526<!@!>146<!@!>2014-07-17 11:08:46<!@!>Harjeet<!@!>152<!@!>gud morning
1405575533<!@!>146<!@!>2014-07-17 11:08:53<!@!>Harjeet<!@!>152<!@!>how are you ???
1405575844<!@!>146<!@!>2014-07-17 11:14:04<!@!>Harjeet<!@!>152<!@!>u dere??
1405575901<!@!>152<!@!>2014-07-17 11:15:01<!@!>Rachita<!@!>146<!@!>yes
1405576381<!@!>146<!@!>2014-07-17 11:23:01<!@!>Harjeet<!@!>152<!@!>hello
1405576384<!@!>146<!@!>2014-07-17 11:23:04<!@!>Harjeet<!@!>152<!@!>hiii
1405576393<!@!>146<!@!>2014-07-17 11:23:13<!@!>Harjeet<!@!>152<!@!>where r u??
1405577747<!@!>146<!@!>2014-07-17 11:45:47<!@!>Harjeet<!@!>152<!@!>hii
1405578902<!@!>146<!@!>2014-07-17 12:05:02<!@!>Harjeet<!@!>152<!@!>Hi How are you ?
1405579142<!@!>146<!@!>2014-07-17 12:09:02<!@!>Harjeet<!@!>152<!@!>hiii
1405744784<!@!>146<!@!>2014-07-19 10:09:44<!@!>Harjeet<!@!>152<!@!>gud morning
1405744808<!@!>152<!@!>2014-07-19 10:10:08<!@!>Rachita<!@!>146<!@!>hiii
1405744978<!@!>146<!@!>2014-07-19 10:12:58<!@!>Harjeet<!@!>152<!@!>gud morning
1406523238<!@!>146<!@!>2014-07-28 10:23:58<!@!>Harjeet<!@!>152<!@!>hiiiiiiiii
1406635505<!@!>152<!@!>2014-07-29 17:35:05<!@!>Rachita<!@!>146<!@!>Hello
1406727072<!@!>152<!@!>2014-07-30 19:01:12<!@!>Rachita<!@!>146<!@!>hii
